module github.com/vugu/vugu

replace gitlab.com/al-coder/xservice => ../../GO/xservice

require (
	github.com/chromedp/cdproto v0.0.0-20191009033829-c22f49c9ff0a
	github.com/chromedp/chromedp v0.5.1
	github.com/davecgh/go-spew v1.1.1 // indirect
	github.com/stretchr/testify v1.4.0
	github.com/vugu/html v0.0.0-20190914200101-c62dc20b8289
	github.com/vugu/vjson v0.0.0-20200505061711-f9cbed27d3d9
	github.com/vugu/xxhash v0.0.0-20191111030615-ed24d0179019
	golang.org/x/sys v0.0.0-20200724161237-0e2f3a69832c // indirect
	golang.org/x/text v0.3.0

	gitlab.com/al-coder/xservice v0.0.0-20230305091837-7764a731009e // indirect

)

go 1.14
